46410801,Anna,Guardiola,1996-04-05,1,ASIX
46410802,Miguel,Amoros,1996-04-06,2,ISIX
46410803,Diego,Lopez,1996-04-07,2,DAM
46410804,Ivan,Gomez,1996-04-08,1,DAW
46410805,Juan,Gotera,1996-04-09,2,ISIX
46410806,Elias,Del Bombo,1996-04-10,2,ASIX
46410807,Silvia,Martinez,1996-04-11,1,DAM
46410808,Joan,Fernandez,1996-04-12,1,DAM
46410809,Cristiano,Ronaldo,1996-04-13,1,DAW
46410810,Josep Joan,Fernandez,1996-04-14,2,ISIX
46410811,Josep Maria,Fernandez,1996-04-15,1,ASIX
46410812,Josep,Fernandez,1996-04-16,2,DAM
46410813,Pep,Fernandez,1996-04-17,1,DAW
